[{"IBAN":"FR13 7336 5859 16T7 PVRS 039Q T96","userId":6,"balance":2749.78},
{"IBAN":"NL52 XLHY 5400 3001 02","userId":21,"balance":982.64},
{"IBAN":"PT97 1845 0984 0936 1318 2923 3","userId":29,"balance":3733.27},
{"IBAN":"CR07 0440 3787 5589 1287 2","userId":2,"balance":3171.5},
{"IBAN":"AT91 7144 4804 6770 7202","userId":2,"balance":570.71},
{"IBAN":"MU56 HSWA 8492 8242 1721 6675 879E HW","userId":13,"balance":2692.73},
{"IBAN":"GI30 YOLA XHHE 6RGG FG8M QLQ","userId":7,"balance":2637.87},
{"IBAN":"FR46 8750 9692 490Z OTNO TBBA Y65","userId":6,"balance":4961.27},
{"IBAN":"AT67 5538 3561 7025 0664","userId":29,"balance":553.53},
{"IBAN":"TR94 1555 4SKX X0Z7 XWSC HJHL 1W","userId":16,"balance":1582.25},
{"IBAN":"MK79 392J HN8G BUZB T00","userId":18,"balance":3076.15},
{"IBAN":"IS14 7395 8618 1389 0715 6406 22","userId":13,"balance":4253.32},
{"IBAN":"RS27 8604 3397 2722 2303 42","userId":15,"balance":2472.52},
{"IBAN":"BH10 PTUB MWVU 1HZG WLTR JL","userId":3,"balance":4860.94},
{"IBAN":"BE61 1953 1965 3058","userId":6,"balance":4097.05},
{"IBAN":"GE81 MN20 4213 4808 5499 22","userId":16,"balance":1932.03},
{"IBAN":"CZ41 1530 1518 2629 8440 7779","userId":28,"balance":763.74},
{"IBAN":"FO31 7923 0282 3917 04","userId":27,"balance":3521.49},
{"IBAN":"LU40 976O VTNA EEOV NH43","userId":23,"balance":3617.36},
{"IBAN":"GT28 VMUE XWTK G1Z9 RMVS IQ0U 7O0Q","userId":29,"balance":2835.53},
{"IBAN":"BE62 5481 7803 3066","userId":25,"balance":2559.55},
{"IBAN":"FR13 4807 3191 828A 1LDB KQ8P G43","userId":24,"balance":1775.79},
{"IBAN":"GR97 5966 069Y 8ZIZ HPSU 7JPZ OEZ","userId":29,"balance":3000.57},
{"IBAN":"FR67 6903 4462 332Z AKJC Y6CI G44","userId":10,"balance":4016.66},
{"IBAN":"SK35 7684 7204 3344 3921 7930","userId":15,"balance":2399.52},
{"IBAN":"FR37 5031 8174 53LH PPMO SCO0 E27","userId":14,"balance":2152.06},
{"IBAN":"KZ08 583Z ZLHK LZRP 5TGH","userId":3,"balance":3039.04},
{"IBAN":"MT25 BGFY 5275 9Z4X WPGD SKXY 1JGT 8GO","userId":5,"balance":2732.28},
{"IBAN":"GI34 EAWD YOUV GQUU VL8M PFD","userId":30,"balance":4044.45},
{"IBAN":"GR41 6427 051L AU3P WV9C WJQP XHA","userId":1,"balance":566.14},
{"IBAN":"FR87 6868 4854 81VJ SG9N PTB3 U32","userId":3,"balance":2338.78},
{"IBAN":"VG29 UBTY 3476 7647 2493 9222","userId":17,"balance":2106.77},
{"IBAN":"FI67 0178 2066 5150 40","userId":10,"balance":2254.68},
{"IBAN":"GL25 0822 1431 6238 63","userId":29,"balance":1743.4},
{"IBAN":"PS31 BDYQ RQOM IFIX PZVH SMN5 AXSG Y","userId":12,"balance":1176.7},
{"IBAN":"AZ40 SHKO ACBG LFWS EOTX U8HW 9SHW","userId":10,"balance":2370.73},
{"IBAN":"GI61 TJQA SXVF 1FMZ SOXO SYO","userId":25,"balance":1681.4},
{"IBAN":"DE59 2009 1833 0950 9818 97","userId":9,"balance":3740.79},
{"IBAN":"BE32 6242 1228 3080","userId":3,"balance":3100.55},
{"IBAN":"DK11 6380 6271 1050 39","userId":29,"balance":1897.56},
{"IBAN":"CH90 6365 5STF LMOA ZZKD T","userId":26,"balance":2869.18},
{"IBAN":"IL94 4594 2434 6886 6775 360","userId":23,"balance":906.51},
{"IBAN":"EE75 6160 5296 7326 4333","userId":23,"balance":3374.07},
{"IBAN":"GE78 UW02 0815 9025 6899 91","userId":17,"balance":4159.35},
{"IBAN":"PS50 ZUZO B78K XTTK KHTN AULL F0QJ J","userId":29,"balance":4134.29},
{"IBAN":"CR16 5154 3459 0857 9181 5","userId":1,"balance":2515.95},
{"IBAN":"RO55 RCVX 9OWJ I4G7 JUGC HVQY","userId":14,"balance":3619.64},
{"IBAN":"CR57 8624 8399 1613 4242 3","userId":20,"balance":1564.52},
{"IBAN":"MC78 1721 8311 51BN DKQZ IZ9K 395","userId":14,"balance":534.42},
{"IBAN":"DE48 6184 5809 4034 2324 68","userId":22,"balance":1837.99},
{"IBAN":"MR33 6850 8946 7948 2926 9462 771","userId":24,"balance":4902.02},
{"IBAN":"MC11 8259 4331 41QN 6Q5Q 0ZYF P46","userId":24,"balance":4929.84},
{"IBAN":"FR27 4890 2867 29TR UWJ7 PMJL F48","userId":8,"balance":3373.8},
{"IBAN":"FO16 0790 8613 7657 47","userId":24,"balance":2569.28},
{"IBAN":"FR76 8403 5570 53AT SD9O VAEH 625","userId":15,"balance":1102.76},
{"IBAN":"IS16 6840 5170 0970 7829 6196 01","userId":18,"balance":3085.94},
{"IBAN":"EE45 5032 9740 1515 1540","userId":22,"balance":4712.45},
{"IBAN":"FR11 1742 8216 70G5 FOWG OMGZ A69","userId":11,"balance":2790.74},
{"IBAN":"HU14 7449 5790 6772 7415 4090 0350","userId":26,"balance":4626.45},
{"IBAN":"SM85 E618 8899 650B TFKH R0FR KX2","userId":22,"balance":1566.36}]